{
  "tasks": [
    {
      "title": "xzz666",
      "completed": true,
      "id": 3
    },
    {
      "title": "eee",
      "completed": false,
      "id": 5
    },
    {
      "title": "p",
      "completed": false,
      "id": 7
    },
    {
      "title": "fff",
      "completed": true,
      "id": 8
    },
    {
      "title": "iii)))",
      "completed": false,
      "id": 9
    },
    {
      "title": "xxx",
      "completed": false,
      "id": 10
    }
  ]
}