{
  "tasks": [
    {
      "id": 2,
      "name": "Nguyễn Như Khôi",
      "status": true
    },
    {
      "id": 4,
      "name": "Ngữ Văn",
      "status": false
    },
    {
      "id": 5,
      "name": "Học lập trình ReactJS",
      "status": false
    },
    {
      "id": 6,
      "name": "Học thể dục",
      "status": false
    },
    {
      "id": 7,
      "name": "Ông Cao Thắng",
      "status": true
    },
    {
      "id": 9,
      "name": "Kiều Phong",
      "status": false
    },
    {
      "id": 10,
      "name": "Đại Học Quốc Gia Hà Nội",
      "status": true
    },
    {
      "id": 11,
      "name": "Học Viện Hàng Không",
      "status": true
    },
    {
      "id": 12,
      "name": "Ability",
      "status": true
    },
    {
      "id": 13,
      "name": "Evol",
      "status": false
    },
    {
      "id": 14,
      "name": "qqsd sddf sdf ",
      "status": true
    },
    {
      "id": 15,
      "name": "Trường học",
      "status": false
    }
  ]
}