{
  "customers": [
    {
      "name": "John Doe",
      "phone": "910928392098",
      "address": "123 Sun Street",
      "membership": "Platinum",
      "id": 1
    },
    {
      "name": "Mary Johnson",
      "phone": "808937482734",
      "address": "893 Main Voulevard",
      "membership": "Pro",
      "id": 2
    },
    {
      "name": "Peter",
      "phone": "854552668527",
      "address": "893 Mark",
      "membership": "Pro",
      "id": 3
    },
    {
      "name": "qqq",
      "phone": "123",
      "address": "123qqq",
      "membership": "Pro",
      "id": 4
    },
    {
      "name": "aaagg",
      "phone": "456",
      "address": "aaa1",
      "membership": "Platinum",
      "id": 5
    }
  ]
}